<?xml version="1.0" encoding="UTF-8" standalone="no"?>
<svg
   xmlns:osb="http://www.openswatchbook.org/uri/2009/osb"
   xmlns:dc="http://purl.org/dc/elements/1.1/"
   xmlns:cc="http://creativecommons.org/ns#"
   xmlns:rdf="http://www.w3.org/1999/02/22-rdf-syntax-ns#"
   xmlns:svg="http://www.w3.org/2000/svg"
   xmlns="http://www.w3.org/2000/svg"
   xmlns:sodipodi="http://sodipodi.sourceforge.net/DTD/sodipodi-0.dtd"
   xmlns:inkscape="http://www.inkscape.org/namespaces/inkscape"
   version="1.1"
   id="Capa_1"
   x="0px"
   y="0px"
   width="97px"
   height="97px"
   viewBox="0 0 97 97"
   style="enable-background:new 0 0 97 97;"
   xml:space="preserve"
   sodipodi:docname="georef.svg"
   inkscape:version="0.92.2 5c3e80d, 2017-08-06"><metadata
     id="metadata243"><rdf:RDF><cc:Work
         rdf:about=""><dc:format>image/svg+xml</dc:format><dc:type
           rdf:resource="http://purl.org/dc/dcmitype/StillImage" /><dc:title></dc:title></cc:Work></rdf:RDF></metadata><defs
     id="defs241"><linearGradient
       y2="17.7143"
       x2="78.5009"
       y1="83.8486"
       x1="14.6357"
       gradientUnits="userSpaceOnUse"
       id="SVGID_1_"><stop
         id="stop6626"
         style="stop-color:#0A8991"
         offset="0" /><stop
         id="stop6628"
         style="stop-color:#1B8B93"
         offset="0.0102" /><stop
         id="stop6630"
         style="stop-color:#6FA6AD"
         offset="0.1537" /><stop
         id="stop6632"
         style="stop-color:#A0C0C6"
         offset="0.2988" /><stop
         id="stop6634"
         style="stop-color:#C4D6DA"
         offset="0.4429" /><stop
         id="stop6636"
         style="stop-color:#DEE8EB"
         offset="0.5858" /><stop
         id="stop6638"
         style="stop-color:#F1F5F6"
         offset="0.727" /><stop
         id="stop6640"
         style="stop-color:#FCFDFD"
         offset="0.866" /><stop
         id="stop6642"
         style="stop-color:#FFFFFF"
         offset="1" /></linearGradient><linearGradient
       id="linearGradient6614"
       osb:paint="solid"><stop
         style="stop-color:#000000;stop-opacity:1;"
         offset="0"
         id="stop6612" /></linearGradient></defs><sodipodi:namedview
     pagecolor="#ffffff"
     bordercolor="#666666"
     borderopacity="1"
     objecttolerance="10"
     gridtolerance="10"
     guidetolerance="10"
     inkscape:pageopacity="0"
     inkscape:pageshadow="2"
     inkscape:window-width="1366"
     inkscape:window-height="683"
     id="namedview239"
     showgrid="false"
     inkscape:snap-others="false"
     inkscape:snap-nodes="false"
     inkscape:snap-global="false"
     inkscape:zoom="4.9072165"
     inkscape:cx="94.78674"
     inkscape:cy="50.575166"
     inkscape:window-x="0"
     inkscape:window-y="20"
     inkscape:window-maximized="1"
     inkscape:current-layer="Capa_1" /><linearGradient
     id="SVGID_1_-6"
     gradientUnits="userSpaceOnUse"
     x1="14.6357"
     y1="83.8486"
     x2="78.5009"
     y2="17.7143"><stop
       offset="0"
       style="stop-color:#0A8991"
       id="stop186" /><stop
       offset="0.0102"
       style="stop-color:#1B8B93"
       id="stop188" /><stop
       offset="0.1537"
       style="stop-color:#6FA6AD"
       id="stop190" /><stop
       offset="0.2988"
       style="stop-color:#A0C0C6"
       id="stop192" /><stop
       offset="0.4429"
       style="stop-color:#C4D6DA"
       id="stop194" /><stop
       offset="0.5858"
       style="stop-color:#DEE8EB"
       id="stop196" /><stop
       offset="0.727"
       style="stop-color:#F1F5F6"
       id="stop198" /><stop
       offset="0.866"
       style="stop-color:#FCFDFD"
       id="stop200" /><stop
       offset="1"
       style="stop-color:#FFFFFF"
       id="stop202" /></linearGradient><linearGradient
     id="SVGID_2_"
     gradientUnits="userSpaceOnUse"
     x1="42.7446"
     y1="-34.48"
     x2="53.9945"
     y2="126.4003"><stop
       offset="0"
       style="stop-color:#0A8991"
       id="stop207" /><stop
       offset="0.015"
       style="stop-color:#38929A"
       id="stop209" /><stop
       offset="0.0528"
       style="stop-color:#6EA6AD"
       id="stop211" /><stop
       offset="0.0958"
       style="stop-color:#96BAC0"
       id="stop213" /><stop
       offset="0.0958"
       style="stop-color:#B5CCD1"
       id="stop215" /><stop
       offset="0.25639999"
       style="stop-color:#cddcdf;stop-opacity:0.01363636"
       id="stop217" /><stop
       offset="0.2564"
       style="stop-color:#E0E9EC"
       id="stop219" /><stop
       offset="0.3283"
       style="stop-color:#EEF3F5"
       id="stop221" /><stop
       offset="0.4195"
       style="stop-color:#F8FAFB"
       id="stop223" /><stop
       offset="0.553"
       style="stop-color:#FEFEFE"
       id="stop225" /><stop
       offset="1"
       style="stop-color:#FFFFFF"
       id="stop227" /></linearGradient><path
     style="opacity:1;fill:#000080;fill-opacity:1;fill-rule:evenodd;stroke:#000001;stroke-width:0;stroke-linejoin:round;stroke-miterlimit:4;stroke-dasharray:12.79443922, 6.39721962;stroke-dashoffset:0;stroke-opacity:1"
     d="M 48.654297 0 A 48.589638 47.270882 0 0 0 0.10546875 46.462891 L 97.203125 46.462891 L 97.203125 48.064453 A 48.589638 47.270882 0 0 0 97.244141 47.271484 A 48.589638 47.270882 0 0 0 48.654297 0 z "
     id="path63" /><path
     style="fill:#000080;fill-rule:evenodd;stroke-width:1.69199359"
     d="M 44.808594 0.203125 L -0.16210938 45.814453 L 46.882812 97.851562 L 97.162109 46.857422 L 54.986328 0.203125 L 44.808594 0.203125 z "
     id="rect84" /><ellipse
     style="opacity:1;fill:#ff0000;fill-opacity:1;fill-rule:evenodd;stroke:#000001;stroke-width:0;stroke-linejoin:round;stroke-miterlimit:4;stroke-dasharray:8.0503937, 4.02519685000000038;stroke-dashoffset:0;stroke-opacity:1"
     id="path92"
     cx="57.77206"
     cy="23.027311"
     rx="8.456933"
     ry="8.1512604" /></svg>